# time: 15.12.2015 19:12:20.709
# name: HR
# channel: HR
# channel: QUALITY
0.884	76	1
1.874	75	1
2.877	75	1
3.865	76	1
4.866	76	1
5.859	75	1
6.854	75	1
7.851	75	1
8.847	74	1
9.844	72	1
10.841	72	1
11.839	72	1
12.831	72	1
13.831	73	1
14.826	73	1
15.82	76	1
16.817	76	1
17.813	75	1
18.808	75	1
19.805	74	1
20.804	73	1
21.796	73	1
22.796	71	1
23.789	72	1
24.788	72	1
25.781	71	1
26.779	72	1
27.775	71	1
28.769	73	1
29.765	72	1
30.761	75	1
31.766	73	1
32.754	74	1
33.751	73	1
34.747	74	1
35.747	74	1
36.747	75	1
37.734	75	1
38.732	74	1
39.727	74	1
40.725	74	1
41.719	75	1
42.72	75	1
43.712	74	1
44.707	74	1
45.707	70	1
46.699	70	1
47.7	70	1
48.691	70	1
49.69	71	1
50.684	71	1
51.68	75	1
52.675	74	1
53.671	74	1
54.671	75	1
55.664	75	1
56.662	75	1
57.657	74	1
58.654	74	1
59.649	74	1
60.644	74	1
61.642	74	1
62.64	71	1
63.636	72	1
64.629	72	1
65.627	71	1
66.622	71	1
67.627	72	1
68.614	71	1
69.609	72	1
70.609	72	1
71.602	71	1
72.599	72	1
73.594	72	1
74.592	71	1
75.586	71	1
76.582	71	1
77.579	72	1
78.575	70	1
79.573	70	1
80.568	70	1
81.567	70	1
82.559	69	1
83.555	69	1
84.552	70	1
85.554	70	1
86.547	70	1
87.539	69	1
88.537	69	1
89.532	70	1
90.527	70	1
91.524	68	1
92.52	69	1
93.519	70	1
94.516	70	1
95.512	70	1
96.504	71	1
97.5	71	1
98.497	70	1
99.492	70	1
100.494	70	1
101.484	70	1
102.482	70	1
103.477	70	1
104.473	70	1
105.47	70	1
106.465	70	1
107.465	71	1
108.463	72	1
109.455	72	1
110.449	71	1
111.446	71	1
112.441	72	1
113.439	73	1
114.438	73	1
115.43	72	1
116.428	71	1
117.423	71	1
118.422	71	1
119.414	72	1
120.41	72	1
121.41	71	1
122.404	70	1
123.398	70	1
124.396	69	1
125.399	69	1
126.389	69	1
127.383	68	1
128.383	68	1
129.376	68	1
130.388	69	1
131.368	69	1
132.364	67	1
133.36	67	1
134.355	67	1
135.354	66	1
136.349	66	1
137.344	65	1
138.34	65	1
139.338	65	1
140.336	65	1
141.33	67	1
142.327	67	1
143.32	67	1
144.32	67	1
145.313	68	1
146.309	70	1
147.309	71	1
148.301	75	1
149.301	74	1
150.294	73	1
151.289	73	1
152.287	73	1
153.282	73	1
154.281	73	1
155.274	72	1
156.272	71	1
157.266	71	1
158.261	71	1
159.263	71	1
160.254	70	1
161.253	75	1
162.247	75	1
163.243	75	1
164.239	76	1
165.236	76	1
166.243	80	1
167.227	79	1
168.223	80	1
169.219	76	1
170.216	76	1
171.211	76	1
172.209	76	1
173.208	76	1
174.2	76	1
175.21	76	1
176.191	78	1
177.189	80	1
178.184	79	1
179.18	79	1
180.179	80	1
181.173	77	1
182.17	77	1
183.167	77	1
184.16	76	1
185.157	75	1
186.153	74	1
187.151	73	1
188.145	73	1
189.141	73	1
190.138	73	1
191.134	73	1
192.13	76	1
193.125	76	1
194.124	76	1
195.12	73	1
196.114	72	1
197.111	72	1
198.108	73	1
199.103	73	1
200.099	73	1
201.097	75	1
202.09	74	1
203.087	75	1
204.083	75	1
205.079	75	1
206.08	78	1
207.07	77	1
208.067	77	1
209.063	77	1
210.062	77	1
211.056	77	1
212.051	76	1
213.05	75	1
214.044	75	1
215.044	75	1
216.035	75	1
217.033	75	1
218.028	74	1
219.024	74	1
220.034	76	1
221.017	75	1
222.012	73	1
223.009	74	1
224.004	73	1
225.006	76	1
225.997	76	1
226.995	75	1
227.989	75	1
228.993	75	1
229.984	72	1
230.977	71	1
231.978	71	1
232.969	71	1
233.969	71	1
234.961	74	1
235.959	70	1
236.956	70	1
237.95	70	1
238.951	70	1
239.941	70	1
240.943	69	1
241.934	69	1
242.939	69	1
243.927	69	1
244.922	72	1
245.923	72	1
246.917	75	1
247.913	74	1
248.909	73	1
249.903	74	1
250.899	74	1
251.901	73	1
252.895	76	1
253.888	75	1
254.889	75	1
255.88	75	1
256.875	72	1
257.872	72	1
258.867	71	1
259.867	71	1
260.861	71	1
261.858	72	1
262.853	71	1
263.857	72	1
264.846	72	1
265.84	72	1
266.84	72	1
267.832	70	1
268.834	69	1
269.826	70	1
270.822	70	1
271.818	70	1
272.812	72	1
273.812	72	1
274.806	70	1
275.804	70	1
276.798	70	1
277.794	69	1
278.79	70	1
279.786	70	1
280.864	69	1
281.777	69	1
282.777	69	1
283.77	69	1
284.766	68	1
285.766	68	1
286.759	68	1
287.762	68	1
288.75	69	1
289.747	69	1
290.744	69	1
291.739	69	1
292.742	70	1
293.731	70	1
294.73	75	1
295.724	74	1
296.73	74	1
297.72	74	1
298.712	74	1
299.711	74	1
300.704	72	1
301.7	72	1
302.698	72	1
303.697	72	1
304.691	72	1
305.694	72	1
306.684	72	1
307.677	71	1
308.674	70	1
309.671	71	1
310.666	73	1
311.663	73	1
312.657	73	1
313.665	73	1
314.659	73	1
315.646	72	1
316.646	71	1
317.638	74	1
318.636	74	1
319.63	74	1
320.627	73	1
321.623	73	1
322.623	73	1
323.633	74	1
324.61	74	1
325.607	74	1
326.603	74	1
327.599	74	1
328.6	73	1
329.59	73	1
330.588	73	1
331.583	74	1
332.579	74	1
333.577	73	1
334.572	73	1
335.569	74	1
336.564	74	1
337.57	74	1
338.556	74	1
339.562	73	1
340.551	74	1
341.558	73	1
342.542	73	1
343.537	70	1
344.533	70	1
345.529	70	1
346.526	70	1
347.522	70	1
348.517	70	1
349.513	69	1
350.52	69	1
351.506	69	1
352.505	69	1
353.498	70	1
354.505	70	1
355.489	69	1
356.485	69	1
357.483	70	1
358.477	70	1
359.491	70	1
360.47	70	1
361.466	71	1
362.461	70	1
363.458	70	1
364.456	70	1
365.45	70	1
366.447	70	1
367.443	70	1
368.452	71	1
369.436	71	1
370.43	72	1
371.43	72	1
372.423	73	1
373.423	73	1
374.415	73	1
375.412	73	1
376.411	73	1
377.413	74	1
378.402	74	1
379.395	74	1
380.391	75	1
381.389	75	1
382.384	75	1
383.383	75	1
384.377	75	1
385.373	72	1
386.382	72	1
387.366	72	1
388.361	72	1
389.357	72	1
390.353	72	1
391.349	72	1
392.345	72	1
393.342	72	1
394.337	72	1
395.347	72	1
396.329	72	1
397.326	72	1
398.322	72	1
399.351	72	1
400.314	72	1
401.311	73	1
402.308	73	1
403.306	74	1
404.31	74	1
405.294	75	1
406.29	76	1
407.289	75	1
408.283	75	1
409.279	75	1
410.276	75	1
411.271	74	1
412.271	75	1
413.272	72	1
414.259	71	1
415.255	71	1
416.252	71	1
417.25	71	1
418.244	72	1
419.242	72	1
420.237	72	1
421.231	72	1
422.243	72	1
423.224	73	1
424.225	74	1
425.217	74	1
426.213	75	1
427.209	74	1
428.204	74	1
429.203	74	1
430.196	74	1
431.209	72	1
432.189	72	1
433.186	72	1
434.184	72	1
435.178	72	1
436.177	72	1
437.169	72	1
438.167	71	1
439.162	71	1
440.168	71	1
441.156	72	1
442.15	72	1
443.15	72	1
444.144	72	1
445.138	72	1
446.135	71	1
447.13	72	1
448.127	72	1
449.135	72	1
450.123	72	1
451.115	73	1
452.11	73	1
453.112	72	1
454.103	71	1
455.101	71	1
456.096	71	1
457.092	70	1
458.104	70	1
459.084	69	1
460.081	68	1
461.075	69	1
462.074	73	1
463.069	72	1
464.064	72	1
465.064	72	1
466.057	71	1
467.068	71	1
468.049	71	1
469.044	71	1
470.041	71	1
471.037	70	1
472.034	70	1
473.03	72	1
474.029	72	1
475.027	72	1
476.017	72	1
477.014	72	1
478.009	72	1
479.009	72	1
480.001	72	1
480.998	72	1
481.994	72	1
482.99	71	1
483.994	71	1
484.981	70	1
485.98	71	1
486.974	71	1
487.97	70	1
488.967	70	1
489.963	68	1
490.961	67	1
491.957	67	1
492.952	67	1
493.947	65	1
494.942	65	1
495.939	65	1
496.935	65	1
497.937	64	1
498.928	65	1
499.924	65	1
500.921	64	1
501.915	64	1
502.918	64	1
503.908	64	1
504.905	64	1
505.901	64	1
506.897	63	1
507.893	63	1
508.888	63	1
509.887	63	1
510.882	62	1
511.876	62	1
512.873	61	1
513.869	61	1
514.87	61	1
515.861	60	1
516.858	60	1
517.853	60	1
518.857	60	1
519.847	67	1
520.841	67	1
521.84	67	1
522.834	68	1
523.83	67	1
524.827	67	1
525.823	68	1
526.82	68	1
527.814	69	1
528.81	70	1
529.807	70	1
530.802	70	1
531.799	71	1
532.796	71	1
533.797	71	1
534.786	71	1
535.783	72	1
536.779	72	1
537.778	73	1
538.775	72	1
539.768	72	1
540.764	72	1
541.759	73	1
542.755	72	1
543.759	72	1
544.748	72	1
545.746	72	1
546.74	73	1
547.737	78	1
548.733	78	1
549.728	81	1
550.726	76	1
551.72	81	1
552.718	81	1
553.713	80	1
554.709	80	1
555.705	83	1
556.701	83	1
557.702	83	1
558.693	82	1
559.694	76	1
560.686	75	1
561.681	75	1
562.679	75	1
563.674	72	1
564.671	71	1
565.674	71	1
566.662	72	1
567.658	72	1
568.654	72	1
569.652	73	1
570.647	73	1
571.645	73	1
572.639	73	1
573.635	73	1
574.631	73	1
575.627	73	1
576.631	73	1
577.619	73	1
578.618	73	1
579.611	73	1
580.617	74	1
581.604	73	1
582.599	73	1
583.599	72	1
584.607	73	1
585.59	73	1
586.584	71	1
587.58	72	1
588.577	72	1
589.573	72	1
590.575	72	1
591.564	72	1
592.564	70	1
593.557	70	1
594.552	70	1
595.549	70	1
596.546	70	1
597.544	70	1
598.538	69	1
599.533	68	1
600.529	68	1
601.528	69	1
602.522	72	1
603.518	72	1
604.516	73	1
605.511	73	1
606.505	73	1
607.502	73	1
608.5	73	1
609.497	74	1
610.49	74	1
611.487	75	1
612.483	74	1
613.479	74	1
614.476	74	1
615.47	74	1
616.468	74	1
617.463	72	1
618.46	72	1
619.457	72	1
620.452	73	1
621.451	73	1
622.443	74	1
623.441	76	1
624.437	76	1
625.434	76	1
626.427	76	1
627.424	75	1
628.421	76	1
629.417	75	1
630.413	75	1
631.409	75	1
632.404	72	1
633.404	72	1
634.397	70	1
635.397	72	1
636.39	74	1
637.385	70	1
638.381	69	1
639.377	70	1
640.375	69	1
641.37	69	1
642.368	70	1
643.362	70	1
644.357	71	1
645.358	71	1
646.35	71	1
647.35	72	1
648.342	75	1
649.337	75	1
650.34	77	1
651.33	75	1
652.328	75	1
653.323	76	1
654.319	76	1
655.315	75	1
656.31	74	1
657.31	76	1
658.303	73	1
659.302	74	1
660.295	75	1
661.299	76	1
662.296	76	1
663.287	75	1
664.28	75	1
665.276	76	1
666.272	70	1
667.268	71	1
668.264	71	1
669.273	72	1
670.257	73	1
671.253	80	1
672.249	79	1
673.244	79	1
674.246	76	1
675.237	76	1
676.233	76	1
677.235	75	1
678.225	74	1
679.228	74	1
680.217	74	1
681.214	74	1
682.21	73	1
683.205	72	1
684.208	76	1
685.198	76	1
686.195	76	1
687.19	76	1
688.193	76	1
689.183	75	1
690.178	75	1
691.18	74	1
692.17	74	1
693.167	74	1
694.17	74	1
695.161	73	1
696.154	73	1
697.15	70	1
698.146	69	1
699.151	70	1
700.139	70	1
701.136	70	1
702.132	70	1
703.128	70	1
704.128	70	1
705.119	71	1
706.117	71	1
707.112	71	1
708.108	76	1
709.106	75	1
710.1	75	1
711.101	75	1
712.093	75	1
713.088	75	1
714.085	75	1
715.081	74	1
716.082	73	1
717.073	73	1
718.072	72	1
719.066	72	1
720.061	72	1
721.06	72	1
722.053	71	1
723.049	70	1
724.046	70	1
725.041	70	1
726.039	69	1
727.035	69	1
728.031	69	1
729.027	69	1
730.021	70	1
731.021	71	1
732.014	72	1
733.01	72	1
734.007	73	1
735.002	73	1
736.002	73	1
736.994	73	1
737.99	72	1
738.987	71	1
739.983	72	1
740.982	73	1
741.978	73	1
742.972	72	1
743.969	72	1
744.963	72	1
745.968	71	1
746.956	70	1
747.952	70	1
748.948	70	1
749.944	70	1
750.944	70	1
751.937	71	1
752.934	71	1
753.928	71	1
754.924	71	1
755.92	71	1
756.917	72	1
757.914	72	1
758.909	73	1
759.914	74	1
760.905	74	1
761.897	74	1
762.894	74	1
763.889	73	1
764.887	73	1
765.883	72	1
766.878	72	1
767.875	72	1
768.87	72	1
769.865	71	1
770.862	71	1
771.858	71	1
772.858	71	1
773.85	71	1
774.847	71	1
775.843	72	1
776.84	73	1
777.839	73	1
778.83	73	1
779.827	73	1
780.823	72	1
781.819	71	1
782.816	71	1
783.811	71	1
784.81	71	1
785.804	70	1
786.799	70	1
787.8	69	1
788.791	69	1
789.79	67	1
790.79	66	1
791.78	65	1
792.776	64	1
793.773	64	1
794.77	63	1
795.767	62	1
796.76	62	1
797.762	62	1
798.753	62	1
799.754	62	1
800.746	62	1
801.74	63	1
802.737	62	1
803.733	62	1
804.731	63	1
805.726	62	1
806.721	62	1
807.718	62	1
808.714	62	1
809.713	62	0
810.706	62	0
811.701	62	0
812.699	62	1
813.694	62	1
814.695	62	1
815.688	62	1
816.682	62	1
817.679	71	1
818.674	71	1
819.676	71	1
820.668	71	1
821.663	70	1
822.66	72	1
823.655	72	1
824.653	72	1
825.649	71	1
826.645	72	1
827.64	72	1
828.652	75	1
829.633	74	1
830.628	74	1
831.624	74	1
832.62	74	1
833.616	75	1
834.612	75	1
835.608	75	1
836.604	83	1
837.6	82	1
838.597	83	1
839.595	83	1
840.589	83	1
841.585	83	1
842.58	81	1
843.584	81	1
844.58	81	1
845.572	80	1
846.565	80	1
847.562	80	1
848.559	78	1
849.558	78	1
850.555	78	1
851.546	77	1
852.542	78	1
853.539	77	1
854.538	78	1
855.53	77	1
856.526	78	1
857.523	78	1
858.521	78	1
859.52	78	1
860.511	76	1
861.507	76	1
862.504	76	1
863.499	76	1
864.5	76	1
865.491	75	1
866.488	75	1
867.483	75	1
868.48	75	1
869.481	75	1
870.471	76	1
871.468	76	1
872.464	75	1
873.46	75	1
874.459	75	1
875.452	76	1
876.449	78	1
877.444	78	1
878.441	79	1
879.439	79	1
880.433	78	1
881.432	78	1
882.426	78	1
883.42	79	1
884.424	79	1
885.413	79	1
886.419	79	1
887.406	79	1
888.401	79	1
889.397	79	1
890.394	78	1
891.39	77	1
892.385	72	1
893.384	71	1
894.393	71	1
895.374	72	1
896.382	72	1
897.367	72	1
898.365	72	1
899.363	72	1
900.354	72	1
901.354	72	1
902.346	72	1
903.345	72	1
904.343	72	1
905.336	72	1
906.333	73	1
907.328	72	1
908.325	72	1
909.324	74	1
910.315	75	1
911.317	75	1
912.308	75	1
913.304	75	1
914.303	75	1
915.297	74	1
916.297	74	1
917.288	75	1
918.292	75	1
919.285	75	1
920.277	75	1
921.277	75	1
922.269	74	1
923.272	74	1
924.265	74	1
925.257	74	1
926.257	75	1
927.249	74	1
928.246	76	1
929.241	76	1
930.238	76	1
931.235	78	1
932.231	77	1
933.227	77	1
934.223	77	1
935.218	76	1
936.217	76	1
937.21	75	1
938.207	76	1
939.203	75	1
940.199	75	1
941.203	75	1
942.19	75	1
943.186	74	1
944.183	75	1
945.179	75	1
946.179	75	1
947.172	75	1
948.168	75	1
949.164	74	1
950.164	74	1
951.156	73	1
952.152	74	1
953.147	74	1
954.144	74	1
955.14	74	1
956.148	73	1
957.131	74	0
958.128	74	0
959.126	75	1
960.12	75	1
961.119	75	1
962.112	75	1
963.109	75	1
