# time: 15.12.2015 19:12:20.709
# name: ST
# channel: ST
0.508	31.85
12.799	31.87
43.712	32.01
74.64	32.1
105.572	32.16
136.512	32.22
167.413	32.24
198.343	32.26
229.274	32.29
260.197	32.29
291.11	32.29
322.041	32.3
352.966	32.31
383.897	32.35
414.808	32.39
445.736	32.42
476.669	32.42
507.595	32.45
538.507	32.51
569.448	32.49
600.364	32.48
631.293	32.48
662.204	32.52
693.133	32.55
724.067	32.59
754.992	32.64
785.907	32.64
816.833	32.68
847.76	32.72
878.691	32.77
909.602	32.78
940.53	32.72
