Timestamp, Question number, Min value - Max Value, Answer (%), Time (s), 
2016-01-31 13:35:35.347+0100, 1, SAD - HAPPY, 35, 3.28
2016-01-31 13:35:38.160+0100, 2, No - Yes, 23, 2.81
2016-01-31 13:35:41.305+0100, 3, No - Yes, 81, 3.14
2016-01-31 13:35:45.070+0100, 4, No - Yes, 35, 3.76
2016-01-31 13:35:47.573+0100, 5, No - Yes, 72, 2.50
2016-01-31 13:35:50.306+0100, 6, No - Yes, 21, 2.73
2016-01-31 13:35:51.941+0100, 7, Bad - Fine, 73, 1.63
2016-01-31 13:35:55.886+0100, 8, A lot - Not at all, 28, 3.94
2016-02-01 17:04:25.415+0100, 1, SAD - HAPPY, 66, 2.76
2016-02-01 17:04:26.908+0100, 2, No - Yes, 37, 1.48
2016-02-01 17:04:30.347+0100, 3, No - Yes, 72, 3.43
2016-02-01 17:04:32.894+0100, 4, No - Yes, 25, 2.54
2016-02-01 17:04:35.408+0100, 5, No - Yes, 26, 2.51
2016-02-01 17:04:39.216+0100, 6, No - Yes, 73, 3.80
2016-02-01 17:04:44.147+0100, 7, Bad - Fine, 27, 4.92
2016-02-01 17:04:48.042+0100, 8, A lot - Not at all, 77, 3.89