# time: 15.12.2015 18:42:29.730
# name: PEDO, m
# channel: pedo
0.949	25278
1.961	25278
2.972	25278
3.984	25278
5.014	25278
6.009	25278
7.02	25278
8.032	25278
9.043	25278
10.056	25278
11.068	25278
12.079	25278
13.091	25278
14.103	25278
15.114	25278
16.127	25278
17.137	25278
18.15	25278
19.161	25278
20.172	25278
21.185	25278
22.202	25278
23.206	25278
24.218	25278
25.228	25278
26.238	25278
27.25	25278
28.261	25278
29.271	25278
30.283	25278
31.292	25278
32.303	25278
33.312	25278
34.324	25278
35.334	25278
36.344	25278
37.354	25278
38.364	25278
39.373	25278
40.384	25278
41.392	25278
42.403	25278
43.413	25278
44.422	25278
45.432	25278
46.442	25278
47.45	25278
48.46	25278
49.468	25278
50.479	25278
51.488	25278
52.498	25278
53.507	25278
54.524	25278
55.524	25278
56.534	25278
57.541	25278
58.551	25278
59.559	25278
60.568	25278
61.576	25278
62.587	25278
63.594	25278
64.602	25278
65.611	25278
66.62	25278
67.629	25278
68.637	25278
69.657	25278
70.654	25278
71.662	25278
72.67	25278
73.677	25278
74.687	25278
75.693	25278
76.702	25278
77.711	25278
78.719	25278
79.727	25278
80.735	25278
81.742	25278
82.752	25278
83.766	25278
84.768	25278
85.775	25278
86.782	25278
87.792	25278
88.8	25278
89.807	25278
90.815	25278
91.822	25278
92.831	25278
93.837	25278
94.847	25278
95.854	25278
96.861	25278
97.869	25278
98.878	25278
99.885	25278
100.892	25278
101.9	25278
102.909	25278
103.916	25278
104.924	25278
105.93	25278
106.939	25278
107.946	25278
108.954	25278
109.96	25278
110.969	25278
111.976	25278
112.984	25278
113.99	25278
114.999	25278
116.005	25278
117.029	25278
118.02	25278
119.027	25278
120.035	25278
121.043	25278
122.049	25278
123.057	25278
124.064	25278
125.072	25278
126.078	25278
127.085	25278
128.092	25278
129.099	25278
130.106	25278
131.118	25278
132.12	25278
133.128	25278
134.135	25278
135.142	25278
136.149	25278
137.157	25278
138.163	25278
139.17	25278
140.177	25278
141.184	25278
142.241	25278
143.199	25278
144.203	25278
145.212	25278
146.219	25278
147.226	25278
148.231	25278
149.239	25278
150.245	25278
151.251	25278
152.259	25278
153.265	25278
154.272	25278
155.293	25278
156.286	25278
157.292	25278
158.298	25278
159.304	25278
160.31	25278
161.318	25278
162.323	25278
163.33	25278
164.337	25278
165.343	25278
166.349	25278
167.355	25278
168.361	25278
169.368	25278
170.374	25278
171.387	25278
172.387	25278
173.4	25278
174.399	25278
175.405	25278
176.411	25278
177.418	25278
178.424	25278
179.431	25278
180.437	25278
181.443	25278
182.448	25278
183.455	25278
184.46	25278
185.467	25278
186.473	25278
187.481	25278
188.484	25278
189.491	25278
190.497	25278
191.502	25278
192.509	25278
193.515	25278
194.527	25278
195.526	25278
196.533	25278
197.538	25278
198.544	25278
199.552	25278
200.557	25278
201.563	25278
202.568	25278
203.574	25278
204.58	25278
205.587	25278
206.591	25278
207.598	25278
208.602	25278
209.61	25278
210.613	25278
211.62	25278
212.626	25278
213.631	25278
214.638	25278
215.649	25278
216.649	25278
217.655	25278
218.66	25278
219.667	25278
220.672	25278
221.677	25278
222.682	25278
223.689	25278
224.694	25278
225.7	25278
226.706	25278
227.711	25278
228.717	25278
229.729	25278
230.728	25278
231.734	25278
232.738	25278
233.746	25278
234.749	25278
235.755	25278
236.76	25278
237.767	25278
238.772	25278
239.779	25278
240.781	25278
241.787	25278
242.792	25278
243.799	25278
244.803	25278
245.808	25278
246.814	25278
247.819	25278
248.825	25278
249.83	25278
250.835	25278
251.842	25278
252.846	25278
253.853	25278
254.857	25278
255.862	25278
256.868	25278
257.874	25278
258.879	25278
259.884	25278
260.889	25278
261.895	25278
262.9	25278
263.907	25278
264.91	25278
265.919	25278
266.922	25278
267.927	25278
268.931	25278
269.937	25278
270.942	25278
271.948	25278
272.952	25278
273.957	25278
274.963	25278
275.968	25278
276.972	25278
277.978	25278
278.983	25278
279.988	25278
281.001	25278
281.999	25278
283.003	25278
284.009	25278
285.014	25278
286.019	25278
287.025	25278
288.029	25278
289.034	25278
290.039	25278
291.044	25278
292.049	25278
293.053	25278
294.06	25278
295.064	25278
296.07	25278
297.074	25278
298.081	25278
299.084	25278
300.09	25278
301.094	25278
302.099	25278
303.104	25278
304.109	25278
305.116	25278
306.119	25278
307.124	25278
308.129	25278
309.133	25278
310.139	25278
311.142	25278
312.148	25278
313.152	25278
314.157	25278
315.162	25278
316.167	25278
317.171	25278
318.177	25278
319.181	25278
320.185	25278
321.191	25278
322.195	25278
323.199	25278
324.204	25278
325.208	25278
326.212	25278
327.218	25278
328.223	25278
329.227	25278
330.231	25278
331.235	25278
332.241	25278
333.244	25278
334.25	25278
335.252	25278
336.258	25278
337.262	25278
338.267	25278
339.27	25278
340.275	25278
341.279	25278
342.284	25278
343.288	25278
344.292	25278
345.296	25278
346.301	25278
347.307	25278
348.31	25278
349.314	25278
350.319	25278
351.324	25278
352.329	25278
353.332	25278
354.337	25278
355.341	25278
356.345	25278
357.35	25278
358.354	25278
359.359	25278
360.363	25278
361.367	25278
362.371	25278
363.375	25278
364.38	25278
365.383	25278
366.388	25278
367.392	25278
368.396	25278
369.4	25278
370.405	25278
371.409	25278
372.413	25278
373.417	25278
374.422	25278
375.425	25278
376.429	25278
377.432	25278
378.438	25288
379.441	25292
380.446	25292
381.448	25292
382.452	25292
383.457	25292
384.462	25292
385.466	25292
386.469	25292
387.472	25292
388.478	25292
389.482	25292
390.485	25292
391.489	25292
392.493	25292
393.498	25292
394.502	25292
395.506	25292
396.511	25292
397.513	25292
398.517	25292
399.522	25292
400.526	25292
401.529	25292
402.533	25292
403.536	25292
404.541	25292
405.544	25292
406.549	25292
407.553	25292
408.561	25292
409.559	25292
410.564	25292
411.594	25292
412.571	25292
413.576	25292
414.579	25292
415.582	25292
416.587	25292
417.589	25292
418.594	25292
419.597	25292
420.602	25292
421.603	25292
422.609	25292
423.612	25292
424.617	25292
425.619	25292
426.623	25292
427.627	25292
428.63	25292
429.634	25292
430.637	25292
431.642	25292
432.646	25292
433.648	25292
434.652	25292
435.656	25292
436.66	25292
437.663	25292
438.667	25292
439.67	25292
440.676	25292
441.678	25292
442.681	25292
443.685	25292
444.69	25292
445.692	25292
446.699	25292
447.7	25292
448.718	25292
449.709	25292
450.716	25292
451.716	25292
452.719	25292
453.723	25292
454.727	25292
455.73	25292
456.733	25292
457.737	25292
458.741	25292
459.745	25292
460.749	25292
461.752	25292
462.756	25292
463.761	25292
464.764	25292
465.768	25292
466.771	25292
467.775	25292
468.779	25292
469.782	25292
470.787	25292
471.789	25292
472.794	25292
473.796	25292
474.802	25292
475.804	25292
476.808	25292
477.811	25292
478.815	25292
479.819	25292
480.822	25292
481.827	25292
482.83	25292
483.834	25292
484.838	25292
485.852	25292
486.845	25292
487.848	25292
488.852	25292
489.855	25292
490.86	25292
491.863	25292
492.869	25292
493.87	25292
494.875	25292
495.877	25292
496.883	25292
497.885	25292
498.89	25292
499.892	25292
500.898	25292
501.9	25292
502.904	25292
503.908	25292
504.912	25292
505.915	25292
506.919	25292
507.921	25292
508.925	25292
509.929	25292
510.932	25292
511.936	25292
512.94	25292
513.944	25292
514.948	25292
515.95	25292
516.956	25292
517.957	25292
518.961	25292
519.965	25292
520.969	25292
521.971	25292
522.992	25292
523.979	25292
524.983	25292
525.985	25292
526.989	25292
527.991	25292
528.995	25292
529.999	25292
531.002	25292
532.006	25292
533.019	25292
534.011	25292
535.015	25292
536.019	25292
537.023	25292
538.026	25292
539.029	25292
540.031	25292
541.037	25292
542.039	25292
543.043	25292
544.045	25292
545.05	25292
546.053	25292
547.067	25292
548.059	25292
549.063	25292
550.066	25292
551.071	25292
552.074	25292
553.077	25292
554.08	25292
555.084	25292
556.088	25292
557.092	25292
558.093	25292
559.099	25292
560.101	25292
561.105	25292
562.109	25292
563.113	25292
564.116	25292
565.12	25292
566.124	25292
567.127	25292
568.129	25292
569.133	25292
570.135	25292
571.139	25292
572.141	25292
573.145	25292
574.149	25292
575.152	25292
576.155	25292
577.158	25292
578.161	25292
579.165	25292
580.167	25292
581.172	25292
582.173	25292
583.196	25292
584.181	25292
585.186	25302
586.188	25304
587.192	25304
588.194	25306
589.199	25306
590.201	25306
591.203	25306
592.207	25306
593.212	25306
594.213	25306
595.218	25306
596.22	25306
597.224	25306
598.226	25306
599.23	25306
600.232	25306
601.237	25306
602.239	25306
603.242	25306
604.246	25306
605.249	25306
606.251	25306
607.256	25306
608.257	25306
609.262	25306
610.264	25306
611.269	25306
612.271	25306
613.274	25306
614.278	25306
615.281	25306
616.284	25306
617.288	25306
618.29	25306
619.294	25306
620.297	25306
621.3	25306
622.302	25306
623.306	25306
624.308	25306
625.314	25306
626.315	25306
627.319	25306
628.321	25306
629.325	25306
630.33	25306
631.331	25306
632.335	25306
633.339	25306
634.342	25306
635.345	25306
636.348	25306
637.352	25306
638.354	25306
639.357	25306
640.36	25306
641.362	25306
642.365	25306
643.371	25306
644.373	25306
645.376	25306
646.378	25306
647.381	25306
648.384	25306
649.389	25306
650.39	25306
651.394	25306
652.396	25306
653.4	25306
654.403	25306
655.407	25306
656.409	25306
657.412	25306
658.416	25306
659.418	25306
660.422	25306
661.427	25306
662.428	25306
663.431	25306
664.433	25316
665.437	25316
666.449	25316
667.443	25316
668.446	25316
669.449	25316
670.451	25316
671.456	25316
672.458	25316
673.46	25316
674.462	25316
675.468	25316
676.469	25316
677.472	25316
678.475	25316
679.479	25316
680.484	25316
681.485	25316
682.489	25316
683.491	25316
684.493	25316
685.497	25316
686.499	25316
687.502	25316
688.505	25316
689.508	25316
690.511	25316
691.514	25316
692.516	25316
693.52	25326
694.529	25328
695.527	25330
696.528	25330
697.531	25330
698.533	25330
699.538	25330
700.54	25330
701.544	25330
702.547	25330
703.567	25330
704.553	25330
705.555	25330
706.557	25330
707.562	25330
708.563	25330
709.568	25330
710.57	25330
711.572	25330
712.575	25330
713.578	25330
714.582	25330
715.585	25330
716.588	25330
717.592	25330
718.594	25330
719.597	25330
720.599	25330
721.602	25330
722.605	25330
723.608	25330
724.61	25330
725.614	25330
726.622	25330
727.62	25330
728.622	25330
729.627	25330
730.629	25330
731.632	25330
732.634	25330
733.637	25330
734.64	25330
735.644	25330
736.647	25330
737.648	25330
738.653	25330
739.655	25330
740.658	25330
741.661	25330
742.664	25330
743.668	25330
744.67	25330
745.674	25330
746.675	25330
747.679	25330
748.687	25330
749.686	25330
750.688	25330
751.691	25330
752.694	25330
753.696	25330
754.699	25330
755.703	25330
756.705	25330
757.709	25330
758.711	25330
759.714	25330
760.717	25330
761.72	25330
762.722	25330
763.725	25330
764.728	25330
765.731	25330
766.733	25330
767.737	25330
768.738	25330
769.742	25330
770.744	25330
771.748	25330
772.751	25330
773.752	25330
774.755	25330
775.759	25330
776.761	25330
777.766	25330
778.767	25330
779.77	25330
780.773	25330
781.776	25330
782.777	25330
783.781	25330
784.784	25330
785.787	25330
786.789	25330
787.793	25330
788.796	25330
789.797	25330
790.8	25330
791.804	25330
792.806	25330
793.808	25330
794.812	25330
795.816	25330
796.817	25330
797.82	25330
798.823	25330
799.826	25330
800.829	25330
801.832	25330
802.835	25330
803.838	25330
804.84	25330
805.842	25330
806.845	25330
807.848	25330
808.851	25330
809.854	25330
810.857	25330
811.86	25330
812.862	25330
813.865	25330
814.868	25330
815.872	25330
816.874	25330
817.877	25330
818.883	25330
819.882	25330
820.886	25330
821.888	25330
822.891	25330
823.893	25330
824.896	25330
825.899	25330
826.9	25330
827.904	25330
828.906	25330
829.909	25330
830.911	25330
831.916	25330
832.917	25330
833.92	25330
834.922	25330
835.927	25330
836.927	25330
837.931	25330
838.934	25330
839.938	25330
840.939	25330
841.942	25330
842.946	25330
843.947	25330
844.95	25330
845.954	25330
846.957	25330
847.96	25330
848.962	25330
849.966	25330
850.968	25330
851.97	25330
852.972	25330
853.977	25330
854.978	25330
855.997	25330
856.984	25330
857.988	25330
858.99	25330
859.993	25330
860.995	25330
861.998	25330
863.001	25330
864.003	25330
865.006	25330
866.01	25330
867.013	25330
868.015	25330
869.018	25330
870.021	25330
871.024	25330
872.027	25330
873.029	25330
874.033	25330
875.036	25330
876.039	25330
877.041	25330
878.044	25330
879.05	25330
880.05	25330
881.052	25330
882.056	25330
883.058	25330
884.062	25330
885.064	25330
886.068	25330
887.081	25330
888.073	25330
889.076	25330
890.079	25330
891.081	25330
892.085	25330
893.088	25330
894.091	25330
895.092	25330
896.097	25330
897.099	25330
898.102	25330
899.106	25330
900.109	25330
901.11	25330
902.114	25330
903.117	25330
904.12	25330
905.122	25330
906.126	25330
907.127	25330
908.13	25330
909.135	25330
910.137	25330
911.139	25330
912.143	25330
913.145	25330
914.149	25330
915.151	25330
