# time: 14.12.2015 18:09:39.655
# name: PEDO, m
# channel: pedo
0.81	23408
1.822	23408
2.834	23408
3.845	23408
4.859	23408
5.869	23408
6.881	23408
7.903	23408
8.906	23408
9.918	23408
10.929	23408
11.942	23408
12.953	23408
13.964	23408
14.975	23408
15.987	23408
16.999	23408
18.012	23408
19.021	23408
20.036	23408
21.044	23408
22.055	23408
23.069	23408
24.079	23408
25.09	23408
26.101	23408
27.111	23408
28.123	23408
29.135	23408
30.149	23408
31.156	23408
32.165	23408
33.177	23408
34.188	23408
35.199	23408
36.208	23408
37.22	23408
38.23	23408
39.249	23408
40.267	23408
41.268	23408
42.269	23408
43.281	23408
44.291	23408
45.299	23408
46.309	23408
47.319	23408
48.328	23408
49.338	23408
50.348	23408
51.359	23408
52.367	23408
53.381	23408
54.385	23408
55.395	23408
56.404	23408
57.414	23408
58.424	23408
59.433	23408
60.442	23408
61.452	23408
62.46	23408
63.472	23408
64.479	23408
65.503	23408
66.501	23408
67.511	23408
68.525	23408
69.542	23408
70.534	23408
71.542	23408
72.552	23408
73.562	23408
74.575	23408
75.578	23408
76.586	23408
77.595	23408
78.609	23408
79.612	23408
80.621	23408
81.629	23408
82.642	23408
83.645	23408
84.654	23408
85.662	23408
86.672	23408
87.679	23408
88.686	23408
89.697	23408
90.704	23408
91.713	23408
92.724	23408
93.729	23408
94.737	23408
95.746	23408
96.752	23408
97.761	23408
98.779	23408
99.78	23408
100.785	23408
101.794	23408
102.801	23408
103.811	23408
104.82	23408
105.826	23408
106.833	23408
107.841	23408
108.849	23408
109.875	23408
110.866	23408
111.873	23408
112.88	23408
113.889	23408
114.897	23408
115.904	23408
116.912	23408
117.921	23408
118.928	23408
119.942	23408
120.979	23408
121.952	23408
122.959	23408
123.968	23408
124.981	23408
125.984	23408
126.99	23408
128.001	23408
129.005	23408
130.013	23408
131.02	23408
132.029	23408
133.036	23408
134.045	23408
135.051	23408
136.059	23408
137.067	23408
138.075	23408
139.082	23408
140.089	23408
141.098	23408
142.104	23408
143.113	23408
144.121	23408
145.128	23408
146.142	23408
147.143	23408
148.15	23408
149.156	23408
150.164	23408
151.171	23408
152.178	23408
153.186	23408
154.193	23408
155.2	23408
156.209	23408
157.215	23408
158.223	23408
159.23	23408
160.238	23408
161.248	23408
162.254	23408
163.264	23408
164.266	23408
165.274	23408
166.28	23408
167.289	23408
168.296	23408
169.303	23408
170.31	23408
171.318	23408
172.323	23408
173.33	23408
174.339	23408
175.345	23408
176.352	23408
177.358	23408
178.366	23408
179.372	23408
180.381	23408
181.386	23408
182.393	23408
183.399	23408
184.408	23408
185.413	23408
186.421	23408
187.428	23408
188.435	23408
189.441	23408
190.449	23408
191.454	23408
192.463	23408
193.469	23408
194.475	23408
195.482	23408
196.489	23408
197.496	23408
198.503	23408
199.51	23408
200.517	23408
201.522	23408
202.531	23408
203.536	23408
204.543	23408
205.549	23408
206.556	23408
207.562	23408
208.57	23408
209.576	23408
210.584	23408
211.589	23408
212.596	23408
213.603	23408
214.609	23408
215.614	23408
216.622	23408
217.627	23408
218.634	23408
219.639	23408
220.649	23408
221.653	23408
222.659	23408
223.666	23408
224.672	23408
225.678	23408
226.685	23408
227.69	23408
228.697	23408
229.702	23408
230.71	23408
231.715	23408
232.722	23408
233.728	23408
234.734	23408
235.739	23408
236.746	23408
237.752	23408
238.758	23408
239.765	23408
240.771	23408
241.777	23408
242.784	23408
243.789	23408
244.794	23408
245.801	23408
246.808	23408
247.812	23408
248.819	23408
249.824	23408
250.83	23408
251.837	23408
252.844	23408
253.849	23408
254.856	23408
255.867	23408
256.868	23408
257.876	23408
258.88	23408
259.886	23408
260.891	23408
261.896	23408
262.902	23408
263.908	23408
264.914	23408
265.919	23408
266.926	23408
267.932	23408
268.939	23408
269.943	23408
270.949	23408
271.954	23408
272.961	23408
273.969	23408
274.974	23408
275.978	23408
276.985	23408
277.989	23408
278.996	23408
280.0	23408
281.007	23408
282.015	23408
283.019	23408
284.023	23408
285.029	23408
286.035	23408
287.041	23408
288.046	23408
289.052	23408
290.059	23408
291.063	23408
292.069	23408
293.075	23408
294.083	23408
295.086	23408
296.091	23408
297.098	23408
298.103	23408
299.109	23408
300.114	23408
301.122	23408
302.125	23408
303.13	23408
304.135	23408
305.142	23408
306.147	23408
307.152	23408
308.157	23408
309.164	23408
310.169	23408
311.173	23408
312.179	23408
313.185	23408
314.191	23408
315.207	23408
316.2	23408
317.206	23408
318.211	23408
319.216	23408
320.22	23418
321.228	23418
322.232	23418
323.238	23418
324.243	23418
325.249	23418
326.253	23418
327.259	23418
328.263	23418
329.268	23418
330.273	23418
331.279	23418
332.285	23418
333.289	23418
334.294	23418
335.301	23418
336.305	23418
337.311	23418
338.316	23418
339.321	23418
340.326	23418
341.332	23418
342.336	23418
343.342	23418
344.346	23418
345.352	23418
346.358	23418
347.363	23418
348.368	23418
349.372	23418
350.377	23418
351.383	23418
352.387	23418
353.394	23418
354.398	23418
355.403	23418
356.409	23418
357.413	23418
358.418	23418
359.423	23418
360.429	23418
361.433	23418
362.439	23418
363.444	23418
364.449	23418
365.455	23418
366.459	23418
367.465	23418
368.469	23418
369.475	23418
370.478	23418
371.485	23418
372.489	23418
373.494	23418
374.499	23418
375.504	23418
376.509	23418
377.515	23418
378.519	23418
379.525	23418
380.529	23418
381.534	23418
382.539	23418
383.544	23418
384.55	23418
385.555	23418
386.559	23418
387.564	23418
388.568	23418
389.575	23418
390.579	23418
391.585	23418
392.588	23418
393.594	23418
394.603	23418
395.604	23418
396.608	23418
397.615	23418
398.619	23418
399.623	23418
400.628	23418
401.633	23418
402.639	23418
403.644	23418
404.649	23418
405.653	23418
406.658	23418
407.662	23418
408.668	23418
409.672	23418
410.677	23418
411.682	23418
412.685	23418
413.691	23418
414.696	23418
415.701	23418
416.704	23418
417.711	23418
418.714	23418
419.72	23418
420.725	23418
421.73	23418
422.734	23418
423.739	23418
424.745	23418
425.749	23418
426.753	23418
427.76	23418
428.765	23418
429.77	23418
430.783	23418
431.779	23418
432.784	23418
433.788	23418
434.793	23418
435.799	23418
436.806	23418
437.807	23418
438.813	23418
439.818	23418
440.822	23418
441.828	23418
442.831	23418
443.838	23418
444.84	23418
445.846	23418
446.851	23418
447.855	23418
448.859	23418
449.864	23418
450.869	23418
451.874	23418
452.878	23418
453.884	23418
454.889	23418
455.895	23418
456.898	23418
457.903	23418
458.909	23418
459.917	23418
460.918	23418
461.922	23418
462.927	23418
463.932	23418
464.936	23418
465.94	23418
466.946	23418
467.951	23418
468.955	23418
469.96	23418
470.964	23418
471.971	23418
472.975	23418
473.979	23418
474.983	23418
475.988	23418
476.993	23418
477.998	23418
479.003	23418
480.007	23418
481.012	23418
482.018	23418
483.021	23418
484.026	23418
485.029	23418
486.036	23418
487.039	23418
488.044	23418
489.048	23418
490.053	23418
491.058	23418
492.063	23418
493.068	23418
494.073	23418
495.076	23418
496.081	23418
497.085	23418
498.089	23418
499.094	23418
500.099	23418
501.104	23418
502.108	23418
503.113	23418
504.117	23418
505.121	23418
506.126	23418
507.129	23418
508.135	23418
509.14	23418
510.153	23418
511.165	23418
512.153	23418
513.158	23418
514.163	23418
515.166	23418
516.17	23418
517.175	23418
518.18	23418
519.185	23418
520.189	23418
521.194	23418
522.199	23418
523.203	23418
524.208	23418
525.212	23418
526.218	23418
527.221	23418
528.226	23418
529.23	23418
530.235	23418
531.238	23418
532.245	23418
533.249	23418
534.253	23418
535.257	23418
536.263	23418
537.266	23418
538.271	23418
539.275	23418
540.279	23418
541.286	23418
542.288	23418
543.292	23418
544.298	23418
545.303	23418
546.308	23418
547.312	23418
548.316	23418
549.32	23418
550.324	23418
551.33	23418
552.333	23418
553.338	23418
554.343	23418
555.348	23418
556.353	23418
557.356	23418
558.36	23418
559.364	23418
560.37	23418
561.374	23418
562.386	23418
563.382	23418
564.388	23418
565.392	23418
566.398	23418
567.401	23418
568.405	23418
569.411	23418
570.415	23418
571.419	23418
572.423	23418
573.427	23418
574.431	23418
575.436	23418
576.439	23418
577.454	23418
578.449	23418
579.454	23418
580.458	23418
581.462	23418
582.468	23418
583.471	23418
584.476	23418
585.48	23418
586.484	23418
587.489	23418
588.492	23418
589.498	23418
590.5	23418
591.505	23418
592.51	23418
593.512	23418
594.517	23418
595.52	23418
596.524	23418
597.529	23418
598.534	23418
599.537	23418
600.541	23418
601.546	23418
602.55	23418
603.554	23418
604.558	23418
605.562	23418
606.567	23418
607.571	23418
608.574	23418
609.584	23418
610.583	23418
611.587	23418
612.591	23418
613.595	23418
614.599	23418
615.604	23418
616.609	23418
617.611	23418
618.615	23418
619.62	23418
620.624	23418
621.629	23418
622.633	23418
623.636	23418
624.64	23418
625.645	23418
626.649	23418
627.653	23418
628.658	23418
629.661	23418
630.666	23418
631.669	23418
632.674	23418
633.678	23418
634.682	23418
635.684	23418
636.69	23418
637.694	23418
638.698	23418
639.701	23418
640.709	23418
641.711	23418
642.713	23418
643.715	23418
644.721	23418
645.724	23418
646.737	23418
647.732	23418
648.736	23418
649.739	23418
650.751	23418
651.747	23418
652.751	23418
653.757	23418
654.759	23418
655.762	23418
656.768	23418
657.769	23418
658.775	23418
659.778	23418
660.782	23418
661.784	23418
662.789	23418
663.792	23418
664.797	23418
665.802	23418
666.805	23418
667.808	23418
668.812	23418
669.815	23418
670.82	23418
671.823	23418
672.828	23418
673.831	23418
674.848	23418
675.839	23418
676.842	23418
677.85	23418
678.851	23418
679.854	23418
680.861	23418
681.861	23418
682.866	23418
683.871	23418
684.876	23418
685.876	23418
686.884	23418
687.898	23418
688.891	23418
689.891	23418
690.896	23418
691.898	23418
692.904	23418
693.908	23418
694.909	23418
695.917	23418
696.928	23418
697.922	23418
698.927	23418
699.928	23418
700.942	23418
701.936	23418
702.939	23418
703.944	23418
704.951	23418
705.951	23418
706.954	23418
707.96	23418
708.972	23418
709.966	23418
710.972	23418
711.974	23418
712.98	23418
713.981	23418
714.986	23418
715.988	23418
716.994	23418
717.996	23418
719.004	23418
720.004	23418
721.009	23418
722.012	23418
723.016	23418
724.018	23418
725.039	23418
726.027	23418
727.031	23418
728.033	23418
729.039	23418
730.041	23418
731.046	23418
732.049	23418
733.053	23418
734.057	23418
735.06	23418
736.064	23418
737.067	23418
738.071	23418
739.074	23418
740.078	23418
741.083	23434
742.086	23434
743.091	23436
744.094	23438
745.098	23440
746.101	23442
747.105	23444
748.108	23446
749.113	23448
750.116	23448
751.119	23448
752.124	23450
753.128	23452
754.131	23452
755.134	23452
756.137	23454
757.143	23456
758.144	23456
759.149	23456
760.152	23456
761.155	23456
762.159	23456
763.165	23456
764.167	23456
765.172	23456
766.175	23456
767.178	23456
768.182	23456
769.186	23456
770.19	23456
771.193	23456
772.198	23456
773.201	23456
774.205	23456
775.208	23456
776.213	23456
777.215	23456
778.218	23456
779.224	23456
780.226	23456
781.231	23456
782.234	23456
783.238	23456
784.241	23456
785.246	23456
786.249	23456
787.253	23456
788.257	23456
789.261	23456
790.264	23456
791.268	23456
792.272	23456
793.276	23456
794.279	23456
795.284	23456
796.29	23456
797.291	23456
798.295	23456
799.298	23456
800.302	23456
801.306	23456
802.31	23456
803.314	23456
804.317	23456
805.32	23456
806.323	23456
807.327	23456
808.331	23456
809.334	23456
810.339	23456
811.343	23456
812.346	23456
813.35	23456
814.354	23456
815.357	23456
816.359	23456
817.364	23456
818.368	23456
819.37	23456
820.375	23456
821.378	23456
822.382	23456
823.386	23456
824.389	23456
825.403	23456
826.397	23456
827.4	23456
828.404	23456
829.413	23456
830.411	23456
831.416	23456
832.418	23456
833.423	23456
834.426	23468
835.431	23468
836.45	23470
837.437	23470
838.441	23470
839.444	23470
840.448	23470
841.452	23470
842.454	23470
843.458	23470
844.462	23470
845.466	23470
846.469	23470
847.474	23470
848.478	23470
849.481	23470
850.484	23470
851.49	23470
852.49	23470
853.494	23470
854.498	23470
855.502	23470
856.505	23470
857.509	23470
858.514	23470
859.518	23470
860.519	23470
861.524	23470
862.527	23470
863.533	23470
864.534	23470
865.539	23470
866.542	23470
867.546	23470
868.55	23470
869.553	23470
870.557	23470
871.57	23470
872.564	23470
873.569	23470
874.573	23470
875.576	23470
876.578	23470
877.583	23470
878.585	23470
879.591	23470
880.594	23470
881.598	23470
882.601	23470
883.605	23470
884.609	23470
885.613	23470
886.615	23470
887.619	23470
888.624	23480
889.628	23482
890.63	23484
891.635	23484
892.638	23484
893.642	23484
894.645	23484
895.649	23484
896.654	23484
897.656	23484
898.658	23484
899.663	23484
900.666	23484
901.671	23484
902.673	23484
903.678	23484
904.679	23484
905.684	23484
906.688	23484
907.691	23484
908.694	23484
909.699	23484
910.702	23484
911.706	23484
912.709	23484
913.714	23484
914.716	23484
915.72	23484
916.724	23484
917.728	23484
918.729	23484
919.735	23484
920.738	23484
921.742	23484
922.743	23484
923.749	23484
924.751	23484
925.755	23484
926.758	23484
927.762	23484
928.768	23484
929.768	23484
930.772	23484
931.776	23484
932.779	23484
933.791	23484
934.786	23484
935.789	23484
936.792	23484
937.796	23484
938.799	23484
939.804	23484
940.808	23484
941.811	23484
942.813	23484
943.817	23484
944.821	23484
945.825	23484
946.829	23484
947.833	23484
948.841	23484
949.839	23484
950.842	23484
951.846	23484
952.848	23484
953.854	23484
954.856	23484
955.859	23484
956.864	23484
957.867	23484
958.871	23484
959.874	23484
960.879	23484
961.882	23484
962.884	23484
963.888	23484
964.892	23484
965.896	23484
966.899	23484
967.904	23484
968.907	23484
969.911	23484
970.929	23484
971.918	23484
972.921	23484
973.924	23484
974.928	23484
975.931	23484
976.935	23484
977.938	23484
978.941	23484
979.945	23484
980.949	23484
981.951	23484
982.954	23484
983.958	23484
984.96	23484
985.965	23484
986.968	23484
987.973	23484
988.975	23484
989.978	23484
990.981	23484
991.986	23484
992.989	23484
993.993	23484
994.995	23484
995.999	23484
997.002	23484
998.006	23484
999.008	23484
1000.012	23484
1001.015	23484
1002.019	23484
1003.022	23484
1004.026	23484
1005.029	23484
1006.032	23484
1007.034	23484
1008.039	23484
1009.042	23484
1010.046	23484
1011.049	23484
1012.052	23484
1013.056	23484
1014.06	23484
1015.063	23484
1016.076	23484
1017.07	23484
1018.083	23484
1019.077	23484
1020.081	23484
1021.083	23494
1022.088	23494
1023.09	23496
1024.095	23498
1025.097	23500
1026.101	23500
1027.104	23502
1028.109	23504
1029.111	23506
1030.115	23508
1031.118	23508
1032.122	23510
1033.124	23510
1034.129	23510
1035.131	23510
1036.135	23510
1037.138	23510
1038.143	23510
1039.152	23510
1040.149	23510
1041.152	23510
1042.155	23510
1043.158	23510
1044.162	23510
1045.164	23510
1046.17	23510
1047.172	23510
1048.176	23510
1049.179	23510
1050.182	23510
1051.186	23510
1052.189	23510
1053.194	23510
1054.197	23510
1055.201	23510
1056.203	23510
1057.205	23510
1058.209	23510
1059.214	23510
1060.217	23510
1061.219	23510
1062.224	23510
1063.228	23510
1064.232	23510
1065.235	23510
1066.239	23510
1067.241	23510
1068.248	23510
1069.249	23510
1070.252	23510
1071.256	23510
1072.258	23510
1073.263	23510
1074.266	23510
1075.268	23510
1076.273	23510
1077.275	23510
1078.281	23510
1079.282	23510
1080.288	23510
1081.289	23510
1082.293	23510
1083.296	23510
1084.3	23510
1085.303	23510
1086.307	23510
1087.31	23510
1088.313	23510
1089.316	23510
1090.32	23510
1091.322	23510
1092.326	23510
1093.33	23510
1094.334	23510
1095.336	23510
1096.339	23510
1097.343	23510
1098.346	23510
1099.349	23510
1100.362	23510
1101.356	23510
1102.359	23510
1103.364	23510
1104.366	23510
1105.385	23510
1106.37	23510
1107.375	23510
1108.378	23510
1109.381	23510
1110.385	23510
1111.387	23510
1112.39	23510
1113.393	23510
1114.398	23510
1115.4	23510
1116.404	23510
1117.406	23510
1118.41	23510
1119.412	23510
1120.415	23510
1121.418	23510
1122.422	23510
1123.425	23510
1124.429	23510
1125.431	23510
1126.435	23510
1127.437	23510
1128.443	23510
1129.445	23510
1130.448	23510
1131.449	23510
1132.453	23510
1133.455	23510
1134.46	23510
1135.462	23510
1136.466	23510
1137.469	23510
1138.472	23510
1139.475	23510
1140.479	23510
1141.48	23510
1142.484	23510
1143.487	23510
1144.49	23510
1145.494	23510
1146.496	23510
1147.5	23510
1148.503	23510
1149.506	23510
1150.508	23510
1151.511	23510
1152.515	23510
1153.518	23510
1154.521	23510
1155.523	23510
1156.528	23510
1157.53	23510
1158.533	23510
1159.535	23510
1160.539	23510
1161.541	23510
1162.544	23510
1163.548	23510
1164.551	23510
1165.555	23510
1166.558	23510
1167.561	23510
1168.564	23510
1169.567	23510
1170.57	23510
1171.573	23510
1172.576	23510
1173.58	23510
1174.582	23510
1175.585	23510
1176.588	23510
1177.59	23510
1178.595	23510
1179.597	23510
1180.6	23510
1181.604	23510
1182.608	23510
1183.609	23510
1184.612	23510
1185.616	23510
1186.621	23510
1187.622	23510
1188.639	23510
1189.627	23510
1190.631	23510
1191.634	23510
1192.638	23510
1193.641	23510
1194.643	23510
1195.646	23510
1196.65	23510
1197.652	23510
1198.659	23510
1199.659	23510
1200.662	23510
1201.665	23510
1202.668	23510
1203.67	23510
1204.673	23510
1205.677	23510
1206.679	23510
1207.682	23510
1208.686	23510
1209.689	23510
1210.692	23510
1211.698	23510
1212.699	23510
1213.701	23510
1214.705	23510
1215.706	23510
1216.709	23510
1217.712	23510
1218.716	23510
1219.719	23510
1220.722	23510
1221.725	23510
1222.729	23510
1223.731	23510
1224.734	23510
1225.737	23510
1226.739	23510
1227.744	23510
1228.746	23510
1229.749	23510
1230.752	23510
1231.756	23510
1232.76	23510
1233.762	23510
1234.766	23510
1235.769	23510
1236.772	23510
1237.774	23510
1238.777	23510
1239.781	23510
1240.783	23510
1241.786	23510
1242.789	23510
1243.792	23510
1244.796	23510
1245.798	23510
1246.802	23510
1247.805	23510
1248.809	23510
1249.811	23510
1250.815	23510
1251.818	23510
1252.821	23510
1253.823	23510
1254.827	23510
1255.83	23510
1256.834	23510
1257.836	23510
1258.839	23510
1259.841	23510
1260.846	23510
