# time: 11.01.2016 14:52:29.677
# name: HR
# channel: HR
# channel: QUALITY
1.15	144	0
2.148	144	0
3.14	144	0
4.137	144	0
5.137	144	0
6.13	144	0
7.125	144	0
8.12	144	0
9.12	144	0
10.114	144	0
11.11	144	0
12.11	144	0
13.107	144	0
14.099	144	0
15.095	144	0
16.091	144	0
17.089	144	0
18.084	144	0
19.08	144	0
20.079	144	0
21.072	144	0
22.069	134	0
23.068	124	0
24.061	119	0
25.057	114	0
26.302	115	0
27.299	119	0
28.296	118	0
29.29	118	0
30.298	117	0
31.284	113	0
32.278	113	0
33.274	115	0
34.271	114	0
35.269	114	0
36.267	116	0
37.26	116	0
38.257	116	0
39.267	116	0
40.248	116	0
41.262	116	0
42.248	116	0
43.25	116	0
44.239	116	0
45.252	116	0
46.253	116	0
47.258	116	0
48.252	116	0
49.247	116	0
50.489	116	0
51.479	116	0
52.476	116	0
53.471	116	0
54.468	116	0
55.47	116	0
56.46	116	0
57.457	116	0
58.47	116	0
59.447	116	0
60.444	116	0
61.44	116	0
62.437	111	1
63.438	106	1
64.429	96	1
65.427	91	1
66.428	88	1
67.416	87	1
68.42	83	1
69.409	83	1
70.411	86	1
71.401	83	1
72.397	83	1
73.4	83	1
74.389	83	1
75.384	83	1
76.385	83	1
77.382	83	1
78.375	83	1
79.37	83	1
80.366	83	1
81.362	83	1
82.357	83	1
83.354	85	1
84.35	85	1
85.35	83	1
86.342	83	1
87.339	83	1
88.334	83	1
89.331	83	1
90.335	83	1
91.322	83	1
92.31	85	1
93.309	85	1
94.333	83	1
95.329	83	1
96.326	83	1
97.322	83	1
98.317	83	1
99.314	83	1
100.311	83	1
101.306	83	1
102.302	83	1
103.298	83	1
104.295	84	1
105.29	84	1
106.287	84	1
107.282	84	1
108.278	84	1
109.274	85	1
110.271	85	1
111.268	83	1
112.263	83	1
113.259	83	1
114.255	83	1
115.253	83	1
116.248	83	1
117.251	83	1
118.24	83	1
119.238	83	1
120.234	84	1
121.231	84	1
122.224	84	1
123.223	84	1
124.217	84	1
125.217	85	1
126.21	85	1
127.21	85	1
128.201	85	1
129.198	86	1
130.194	86	1
131.19	86	1
132.187	86	1
133.183	86	1
134.178	86	1
135.174	87	1
136.17	87	1
137.167	87	1
138.161	83	1
139.159	82	1
140.154	83	1
141.151	83	1
142.147	83	1
143.143	84	1
144.139	85	1
145.136	85	1
146.132	84	1
147.127	87	1
148.122	84	1
149.12	85	1
150.116	85	1
151.115	85	1
152.107	85	1
153.108	84	1
154.1	84	1
155.101	85	1
156.092	85	1
157.092	85	1
158.088	85	1
159.093	85	1
160.077	85	1
161.074	85	1
162.069	85	1
163.065	84	1
164.061	85	1
165.058	83	1
166.053	83	1
167.05	83	1
168.046	83	1
169.044	83	1
170.038	83	1
171.034	83	1
172.029	83	1
173.025	87	1
174.023	85	1
175.018	85	1
176.015	85	1
177.011	84	1
178.014	85	1
179.003	83	1
180.0	83	1
180.994	82	1
181.994	81	1
182.986	80	1
183.984	81	1
184.979	81	1
185.977	80	1
186.971	79	1
187.969	80	1
188.963	79	1
189.96	79	1
190.958	78	1
191.952	78	1
192.952	77	1
193.944	76	1
194.943	77	1
195.941	77	1
196.934	76	1
197.928	76	1
198.925	76	1
199.92	76	1
200.917	77	1
201.913	78	1
202.909	87	1
203.905	86	1
204.9	86	1
205.9	83	1
206.892	83	1
207.892	83	1
208.887	82	1
209.882	82	1
210.878	82	1
211.874	82	1
212.869	83	1
213.867	86	1
214.862	84	1
215.858	83	1
216.858	85	1
217.85	83	1
218.85	83	1
219.841	83	1
220.839	83	1
221.834	83	1
222.842	83	1
223.827	83	1
224.823	83	1
225.82	83	1
226.815	82	1
227.815	82	1
228.807	82	1
229.804	82	1
230.799	82	1
231.795	83	1
232.792	83	1
233.789	87	1
234.784	86	1
235.781	86	1
236.779	86	1
237.772	86	1
238.772	87	1
239.764	86	1
240.764	86	1
241.757	86	1
242.753	85	1
243.749	85	1
244.744	85	1
245.744	80	1
246.737	79	1
247.734	79	1
248.729	79	1
249.725	78	1
250.722	78	1
251.718	78	1
252.717	78	1
253.712	78	1
254.707	78	1
255.701	79	1
256.698	79	1
257.694	80	1
258.69	80	1
259.691	80	1
260.682	81	1
261.681	81	1
262.676	81	1
263.672	82	1
264.668	83	1
265.663	83	1
266.659	83	1
267.656	83	1
268.655	84	1
269.647	84	1
270.647	85	1
271.639	84	1
272.635	85	1
273.633	80	1
274.628	80	1
275.627	79	1
276.62	79	1
277.616	79	1
278.612	79	1
279.608	80	1
280.607	79	1
281.6	79	1
282.6	79	1
283.599	78	1
284.589	76	1
285.586	76	1
286.58	75	1
287.592	74	1
288.572	74	1
289.57	73	1
290.566	74	1
291.562	73	1
292.558	73	1
293.552	72	1
294.553	72	1
295.547	72	1
296.542	72	1
297.538	72	1
298.534	72	1
299.533	72	1
300.527	72	1
301.523	76	1
302.519	76	1
303.514	76	1
304.51	77	1
305.507	77	1
306.504	77	1
307.499	80	1
308.496	80	1
309.491	80	1
310.487	80	1
311.485	83	1
312.479	92	1
313.475	91	1
314.472	91	1
315.468	91	1
316.467	91	1
317.459	90	1
318.457	90	1
319.452	89	1
320.449	89	1
321.448	88	1
322.441	88	1
323.448	87	1
324.433	87	1
325.428	87	1
326.43	87	1
327.423	86	1
328.42	86	1
329.413	86	1
330.409	85	1
331.407	84	1
332.401	85	1
333.399	83	1
334.393	83	1
335.39	83	1
336.387	82	1
337.381	82	1
338.381	82	1
339.377	82	1
340.371	81	1
341.369	80	1
342.361	80	1
343.361	80	1
344.354	81	1
345.351	82	1
346.347	81	1
347.345	81	1
348.356	81	1
349.336	82	1
350.331	81	1
351.33	81	1
352.322	81	1
353.325	81	1
354.315	81	1
355.314	81	1
356.312	83	1
357.308	83	1
358.303	84	1
359.295	85	1
360.295	84	1
361.289	84	1
362.284	84	1
363.287	84	1
364.276	83	1
365.273	82	1
366.269	82	1
367.264	82	1
368.263	83	1
369.257	83	1
370.253	82	1
371.249	82	1
372.247	82	1
373.243	80	1
374.24	80	1
375.238	79	1
376.234	79	1
377.225	79	1
378.223	78	1
379.219	79	1
380.218	79	1
381.212	80	1
382.209	80	1
383.203	81	1
384.204	80	1
385.195	81	1
386.199	81	1
387.192	82	1
388.183	81	1
389.179	82	1
390.174	83	1
391.171	83	1
392.167	84	1
393.164	84	1
394.163	84	1
395.155	84	1
396.155	84	1
397.147	85	1
398.147	84	1
399.139	85	1
400.139	85	1
401.137	85	1
402.128	86	1
403.157	86	1
404.121	86	1
405.117	86	1
406.125	86	1
407.109	86	1
408.105	85	1
409.1	86	1
410.099	87	1
411.097	87	1
412.091	86	1
413.088	86	1
414.082	86	1
415.077	87	1
416.077	86	1
417.069	86	1
418.065	86	1
419.07	86	1
420.061	86	1
421.057	86	1
422.053	86	1
423.054	86	1
424.045	86	1
425.038	85	1
426.034	85	1
427.031	85	1
428.027	85	1
429.027	83	1
430.019	83	1
431.016	84	1
432.012	85	1
433.008	84	1
434.006	84	1
434.999	84	1
435.996	84	1
436.992	84	1
437.987	80	1
438.986	79	1
439.979	80	1
440.975	80	1
441.975	83	1
442.968	83	1
443.967	83	1
444.96	83	1
445.957	83	1
446.954	83	1
447.948	83	1
448.944	83	1
449.944	82	1
450.937	83	1
451.933	83	1
452.929	83	1
453.926	83	1
454.922	83	1
455.919	83	1
456.912	83	1
457.914	83	1
458.905	82	1
459.905	82	1
460.899	83	1
461.894	83	1
462.897	83	1
463.887	84	1
464.882	84	1
465.879	84	1
466.874	84	1
467.872	84	1
468.867	84	1
469.863	84	1
470.862	83	1
471.856	85	1
472.851	85	1
473.849	82	1
474.843	82	1
475.844	92	1
476.836	83	1
477.832	82	1
478.832	82	1
479.824	82	1
480.82	82	1
481.817	82	1
482.811	83	1
483.81	83	1
484.804	83	1
485.8	82	1
486.8	81	1
487.793	80	1
488.79	80	1
489.786	80	1
490.78	81	1
491.778	81	1
492.773	82	1
493.769	82	1
494.766	82	1
495.762	83	1
496.767	83	1
497.755	84	1
498.754	84	1
499.747	84	1
500.742	84	1
501.738	80	1
502.741	80	1
503.731	80	1
504.726	80	1
505.723	80	1
506.718	80	1
507.715	80	1
508.711	80	1
509.708	80	1
510.706	81	1
511.699	81	1
512.718	81	1
513.691	81	1
514.687	81	1
515.684	81	1
516.679	81	1
517.675	81	1
518.675	82	1
519.669	81	1
520.664	80	1
521.66	78	1
522.656	78	1
523.653	78	1
524.648	77	1
525.644	76	1
526.643	76	1
527.637	76	1
528.633	76	1
529.633	75	1
530.624	75	1
531.627	76	1
532.617	76	1
533.612	76	1
534.613	76	1
535.605	76	1
536.603	77	1
537.598	77	1
538.593	78	1
539.59	78	1
540.586	80	1
541.582	81	1
542.579	81	1
543.575	81	1
544.571	81	1
545.57	81	1
546.562	81	1
547.561	81	1
548.554	80	1
549.55	79	1
550.548	80	1
551.544	80	1
552.539	80	1
553.537	81	1
554.531	87	1
555.527	86	1
556.528	86	1
557.519	86	1
558.516	86	1
559.512	87	1
560.508	87	1
561.505	87	1
562.499	86	1
563.497	87	1
564.499	86	1
565.488	87	1
566.484	87	1
567.481	90	1
568.477	87	1
569.473	87	1
570.469	87	1
571.464	87	1
572.461	87	1
573.457	86	1
574.457	87	1
575.453	87	1
576.445	87	1
577.442	87	1
578.442	87	1
579.433	86	1
580.431	86	1
581.426	86	1
582.427	87	1
583.418	87	1
584.414	87	1
585.41	88	1
586.41	88	1
587.401	88	1
588.398	88	1
589.397	88	1
590.392	88	1
591.387	88	1
592.383	87	1
593.379	86	1
594.38	79	1
595.371	80	1
596.367	80	1
597.367	80	1
598.359	87	1
599.359	87	1
600.352	87	1
601.348	85	1
602.778	84	1
603.339	83	1
604.337	83	1
605.337	83	1
606.327	83	1
607.324	82	1
608.32	83	1
609.317	83	1
610.313	83	1
611.308	83	1
612.304	83	1
613.311	83	1
614.297	83	1
615.298	83	1
616.297	83	1
617.285	83	1
618.282	83	1
619.278	83	1
620.273	83	1
621.284	83	1
622.266	83	1
623.268	83	1
624.259	83	1
625.256	83	1
626.252	83	1
627.253	83	1
628.241	83	1
629.247	83	1
630.234	83	1
631.23	83	1
632.228	83	1
633.223	83	1
634.219	83	1
635.22	83	1
636.21	83	1
637.207	83	1
638.203	83	1
639.199	83	1
640.196	83	1
641.192	84	1
642.189	84	1
643.187	83	1
644.181	83	1
645.176	92	1
646.173	83	1
647.168	83	1
648.164	91	1
649.161	91	1
650.156	91	1
651.158	92	1
652.153	91	1
653.144	83	1
654.142	83	1
655.137	83	1
656.134	92	1
657.13	91	1
658.125	91	1
659.124	91	1
660.118	90	1
661.114	89	1
662.11	89	1
663.107	89	1
664.107	88	1
665.098	88	1
666.094	83	1
667.096	83	1
668.087	86	1
669.082	86	1
670.079	87	1
671.074	86	1
672.073	83	1
673.067	83	1
674.063	83	1
675.063	83	1
676.057	83	1
677.05	83	1
678.052	83	1
679.043	82	1
680.04	81	1
681.038	80	1
682.032	80	1
683.033	79	1
684.024	79	1
685.019	78	1
686.019	78	1
687.012	77	1
688.011	77	1
689.006	77	1
690.0	78	1
691.0	78	1
691.993	78	1
692.989	78	1
693.99	77	1
694.986	77	1
695.977	78	1
696.974	78	1
697.972	78	1
698.98	77	1
699.962	78	1
700.958	77	1
701.957	77	1
702.949	75	1
703.945	74	1
704.943	74	1
705.938	75	1
706.938	75	1
707.931	75	1
708.927	78	1
709.925	78	1
710.922	78	1
711.917	78	1
712.912	78	1
713.907	78	1
714.903	78	1
715.899	77	1
716.897	77	1
717.897	78	1
718.886	78	1
719.883	78	1
720.883	78	1
721.876	77	1
722.874	78	1
723.868	77	1
724.864	77	1
725.861	77	1
726.857	77	1
727.852	77	1
728.853	77	1
729.844	78	1
730.84	77	1
731.842	77	1
732.842	78	1
733.838	79	1
734.826	79	1
735.824	78	1
736.819	78	1
737.813	79	1
738.809	78	1
739.806	78	1
740.802	78	1
741.855	78	1
742.797	78	1
743.789	79	1
744.785	79	1
745.797	79	1
746.839	79	1
747.774	78	1
748.77	78	1
749.767	77	1
750.767	76	1
751.758	75	1
752.754	74	1
753.755	72	1
754.747	73	1
755.747	73	1
756.743	73	1
757.736	72	1
758.732	71	1
759.728	71	1
760.723	71	1
761.72	71	1
762.718	71	1
763.711	70	1
764.709	71	1
765.704	72	1
766.7	72	1
767.7	73	1
768.694	73	1
769.688	73	1
770.688	73	1
771.681	72	1
772.683	71	1
773.673	70	1
774.677	70	1
775.666	70	1
776.661	70	1
777.657	72	1
778.658	72	1
779.649	72	1
780.645	72	1
781.644	72	1
782.638	72	1
783.634	72	1
784.634	72	1
785.626	72	1
786.621	73	1
787.619	73	1
788.618	73	1
789.611	73	1
790.607	73	1
791.607	74	1
792.611	73	1
793.595	73	1
794.592	71	1
795.59	71	1
796.583	71	1
797.579	71	1
798.58	71	1
799.572	72	1
800.567	72	1
801.564	72	1
802.559	72	1
803.554	71	1
804.552	72	1
805.548	72	1
806.545	72	1
807.54	72	1
808.535	72	1
809.536	72	1
810.528	71	1
811.525	71	1
812.524	71	1
813.518	72	1
814.514	72	1
815.513	72	1
816.504	72	1
817.503	73	1
818.497	73	1
819.502	73	1
820.493	72	1
821.487	73	1
822.482	73	1
823.481	73	1
824.474	72	1
825.471	73	1
826.471	73	1
827.461	73	1
828.458	72	1
829.458	71	1
830.45	71	1
831.447	72	1
832.443	72	1
833.438	72	1
834.439	72	1
835.43	71	1
836.427	70	1
837.424	71	1
838.419	72	1
839.419	71	1
840.417	72	1
841.408	71	1
842.403	73	1
843.407	73	1
844.396	73	1
845.391	73	1
846.389	73	1
847.384	73	1
848.38	74	1
849.377	93	1
850.374	92	1
851.369	92	1
852.367	94	1
853.36	92	1
854.362	94	1
855.353	92	1
856.349	92	1
857.348	92	1
858.34	91	1
859.337	91	1
860.337	90	1
861.329	90	1
862.326	90	1
863.328	90	1
864.318	89	1
865.314	89	1
866.31	90	1
867.307	88	1
868.307	87	1
869.298	87	1
870.294	87	1
871.292	92	1
872.287	92	1
873.283	91	1
874.282	90	1
875.274	87	1
876.27	87	1
877.277	86	1
878.263	87	1
879.26	87	1
880.257	88	1
881.252	87	1
882.248	86	1
883.243	85	1
884.239	87	1
885.241	92	1
886.234	91	1
887.228	83	1
888.227	83	1
889.222	83	1
890.217	88	1
891.213	89	1
892.208	90	1
893.204	83	1
894.201	92	1
895.197	92	1
896.194	91	1
897.189	92	1
898.186	90	1
899.183	89	1
900.177	90	1
901.173	88	1
902.173	92	1
903.166	87	1
904.161	85	1
905.159	85	1
906.154	86	1
907.149	87	1
908.147	86	1
909.142	87	1
910.138	87	1
911.135	85	1
912.131	83	1
913.128	84	1
914.123	85	1
915.118	83	1
916.118	83	1
917.11	83	1
918.106	83	1
919.107	82	1
920.1	82	1
921.097	81	1
922.091	83	1
923.087	81	1
924.084	81	1
925.079	81	1
926.076	81	1
927.073	81	1
928.069	81	1
929.064	81	1
930.063	81	1
931.057	81	1
932.056	81	1
933.066	81	1
934.045	81	1
935.043	81	1
936.038	83	1
937.033	81	1
938.029	83	1
939.026	83	1
940.022	83	1
941.02	76	1
942.014	76	1
943.009	76	1
944.009	77	1
945.002	77	1
945.998	77	1
946.998	78	1
947.989	78	1
948.986	78	1
949.983	78	1
950.979	78	1
951.977	77	1
952.971	77	1
953.967	78	1
954.966	77	1
955.959	77	1
956.955	77	1
957.954	76	1
958.946	76	1
959.944	76	1
960.944	75	1
961.936	75	1
962.931	75	1
963.928	76	1
964.923	75	1
965.926	75	0
966.917	75	0
967.911	76	0
968.911	75	0
969.904	75	1
970.901	76	1
971.9	77	1
972.891	78	1
973.89	78	1
974.892	78	1
975.88	79	1
976.885	79	1
977.873	78	1
978.869	77	1
979.865	78	1
980.861	78	1
981.857	78	1
982.854	79	1
983.849	79	1
984.846	79	1
985.844	79	1
986.838	79	1
987.834	79	1
988.833	78	1
989.826	78	1
990.822	76	1
991.823	76	1
992.814	77	1
993.813	77	1
994.809	77	1
995.803	77	1
996.802	76	1
997.797	75	1
998.79	75	1
999.788	76	1
1000.783	76	1
1001.779	75	1
1002.778	76	1
1003.772	76	1
1004.768	77	1
1005.765	77	1
1006.759	77	1
1007.756	78	1
1008.755	78	1
1009.748	78	1
1010.744	78	1
1011.74	76	1
1012.737	76	1
1013.733	76	1
1014.728	77	1
1015.724	77	1
1016.727	78	1
1017.717	78	1
1018.713	79	1
1019.712	90	1
1020.706	89	1
1021.701	92	1
1022.702	91	1
1023.693	91	1
1024.69	91	1
1025.687	90	1
1026.682	90	1
1027.686	90	1
1028.674	89	1
1029.671	89	1
1030.667	89	1
1031.662	88	1
1032.659	88	1
1033.661	88	1
1034.651	88	1
1035.647	87	1
1036.646	86	1
1037.639	86	1
1038.636	80	1
1039.638	79	1
1040.627	80	1
1041.623	80	1
1042.623	80	1
1043.615	80	1
1044.619	80	1
1045.608	80	1
1046.607	80	1
1047.601	80	1
1048.596	81	1
1049.591	80	1
1050.589	80	1
1051.584	80	1
1052.58	80	1
1053.579	80	1
1054.572	80	1
1055.568	80	1
1056.57	80	1
1057.561	80	1
1058.557	81	1
1059.555	81	1
1060.549	81	1
1061.547	80	1
1062.547	81	1
1063.537	81	1
1064.538	81	1
1065.533	81	1
1066.525	80	1
1067.56	80	1
1068.53	80	1
1069.514	79	1
1070.511	78	1
1071.511	78	1
1072.507	78	1
1073.498	78	1
1074.496	78	1
1075.491	78	1
1076.49	78	1
1077.483	78	1
1078.479	79	1
1079.476	78	1
1080.471	77	1
1081.467	78	1
1082.464	77	1
1083.459	77	1
1084.456	76	1
1085.452	77	1
1086.448	77	1
1087.443	77	1
1088.442	78	1
1089.437	77	1
1090.432	77	1
1091.438	77	1
1092.424	77	1
1093.425	80	1
1094.42	80	1
1095.412	81	1
1096.408	81	1
1097.41	81	1
1098.4	80	1
1099.397	80	1
1100.398	80	1
1101.389	80	1
1102.389	80	1
1103.382	79	1
1104.376	79	1
1105.377	79	1
1106.369	80	1
1107.365	79	1
1108.363	80	1
1109.358	80	1
1110.372	80	1
1111.352	80	1
1112.347	79	1
1113.343	79	1
1114.341	78	1
1115.334	78	1
1116.331	80	1
1117.33	80	1
1118.323	79	1
1119.319	79	1
1120.319	79	1
1121.31	79	1
1122.317	80	1
1123.303	80	1
1124.303	80	1
1125.295	80	1
1126.302	80	1
1127.288	80	1
1128.283	80	1
1129.28	83	1
1130.276	83	1
1131.272	83	1
1132.268	82	1
1133.264	83	1
1134.262	83	1
1135.257	83	1
1136.257	83	1
1137.251	92	1
1138.251	86	1
1139.242	86	1
1140.253	87	1
1141.233	86	1
1142.229	86	1
1143.229	85	1
1144.222	85	1
1145.217	85	1
1146.218	78	1
1147.209	77	1
1148.208	78	1
1149.201	78	1
1150.198	78	1
1151.194	78	1
1152.191	78	1
1153.187	78	1
1154.183	79	1
1155.178	79	1
1156.174	79	1
1157.172	78	1
1158.168	77	1
1159.163	78	1
1160.159	78	1
1161.159	79	1
1162.155	80	1
1163.149	80	1
1164.143	80	1
1165.139	80	1
1166.138	80	1
1167.133	79	1
1168.128	79	1
1169.128	79	1
1170.119	79	1
1171.116	79	1
1172.112	79	1
1173.108	79	1
1174.104	79	1
1175.101	78	1
1176.097	78	1
1177.093	77	1
1178.089	77	1
1179.084	77	1
1180.082	76	1
1181.077	77	1
1182.073	78	1
1183.073	78	1
1184.066	79	1
1185.061	78	1
1186.061	78	1
1187.053	78	1
1188.05	79	1
1189.048	79	1
1190.042	79	1
1191.038	79	1
1192.037	80	1
1193.031	79	1
1194.026	81	1
1195.025	80	1
1196.018	79	1
1197.017	79	1
1198.013	79	1
1199.007	79	1
1200.003	78	1
1200.999	79	1
1201.995	79	1
1202.992	79	1
1203.987	80	1
1204.983	80	1
1205.983	79	1
1206.977	79	1
1207.973	79	1
1208.97	79	1
1209.97	79	1
1210.96	79	1
1211.957	79	0
1212.952	79	0
1213.948	79	0
1214.944	79	0
1215.94	79	0
1216.939	79	0
1217.934	79	0
1218.928	79	0
1219.926	79	0
1220.92	80	1
1221.919	81	1
1222.915	80	1
1223.909	79	1
1224.906	79	1
1225.904	78	1
1226.899	78	1
1227.895	77	1
1228.893	77	1
1229.885	77	1
1230.882	77	1
1231.878	77	1
1232.874	78	1
1233.87	78	1
1234.867	78	1
1235.862	78	1
1236.859	76	1
1237.855	76	1
1238.85	76	1
1239.852	77	1
1240.843	77	1
1241.842	77	1
1242.852	77	1
1243.831	77	1
1244.829	77	0
1245.83	77	0
1246.819	77	0
1247.816	77	0
1248.817	77	0
1249.808	77	0
1250.804	77	0
1251.799	77	0
1252.801	77	0
1253.793	77	0
1254.788	75	1
1255.784	74	1
1256.784	75	1
1257.777	75	1
1258.773	75	1
1259.774	74	1
1260.764	73	1
1261.763	73	1
1262.762	74	1
1263.76	74	1
1264.753	74	1
1265.747	72	1
1266.793	72	1
1267.737	73	1
1268.733	73	1
1269.73	72	1
1270.728	71	1
1271.722	72	1
1272.718	70	1
1273.717	71	1
1274.711	71	1
1275.706	71	1
1276.706	71	1
1277.698	71	1
1278.694	72	1
1279.691	72	1
1280.687	71	1
1281.686	70	1
1282.679	71	1
1283.674	71	1
1284.674	70	1
1285.667	70	1
1286.663	71	1
1287.661	71	1
1288.656	71	1
1289.662	71	1
1290.652	71	1
1291.644	71	1
1292.64	70	1
1293.639	71	1
1294.632	72	1
1295.628	71	1
1296.634	72	1
1297.621	73	1
1298.616	74	1
1299.613	73	1
1300.608	74	1
1301.609	74	1
1302.601	74	1
1303.597	74	1
1304.598	74	1
1305.59	73	1
1306.587	72	1
1307.583	73	1
1308.577	71	1
1309.573	72	1
1310.573	72	1
1311.565	71	1
1312.561	72	1
1313.563	71	1
1314.554	69	1
1315.551	69	1
1316.547	70	1
1317.543	70	1
1318.544	69	1
1319.536	69	1
1320.53	69	1
1321.529	69	1
1322.523	69	1
1323.519	69	1
1324.517	69	1
1325.511	68	1
1326.507	68	1
1327.505	69	1
1328.5	69	1
1329.496	68	1
1330.494	68	1
1331.488	68	1
1332.484	69	1
1333.484	70	1
1334.476	70	1
1335.471	70	1
1336.469	71	1
1337.465	70	1
1338.462	70	1
1339.457	72	1
1340.454	72	1
1341.452	72	1
1342.445	73	1
1343.44	72	1
1344.443	72	1
1345.433	72	1
1346.429	72	1
1347.429	72	1
1348.422	70	1
1349.419	70	1
1350.42	70	1
1351.409	70	1
1352.406	69	1
1353.403	69	1
1354.398	70	1
1355.394	71	1
1356.391	70	1
1357.387	70	1
1358.394	71	1
1359.379	70	1
1360.374	70	1
1361.372	70	1
1362.367	70	1
1363.363	71	1
1364.363	71	1
1365.356	71	1
1366.351	71	1
1367.353	70	1
1368.343	69	1
1369.339	69	1
1370.338	70	1
1371.332	70	1
1372.331	73	1
1373.324	73	1
1374.322	72	1
1375.319	72	1
1376.312	72	1
1377.308	72	1
1378.306	72	1
1379.301	72	1
1380.298	72	1
1381.296	71	1
1382.288	71	1
1383.284	72	1
1384.288	72	1
1385.276	72	1
1386.273	72	1
1387.277	72	1
1388.265	72	1
1389.261	72	1
1390.259	72	1
1391.254	71	1
1392.249	71	1
1393.246	71	1
1394.241	70	1
1395.238	70	1
1396.234	70	1
1397.23	70	1
1398.229	70	1
1399.222	70	1
1400.219	70	1
1401.22	69	1
1402.211	69	1
1403.207	68	1
1404.21	68	1
1405.203	68	1
1406.199	68	1
1407.191	69	1
1408.191	68	1
1409.184	67	1
1410.18	68	1
1411.176	68	0
1412.174	67	0
1413.169	67	1
1414.165	67	1
1415.164	68	1
1416.157	69	1
1417.152	69	1
1418.15	68	1
1419.144	68	1
1420.142	67	1
1421.137	67	1
1422.133	66	1
1423.131	67	1
1424.124	67	1
1425.12	66	1
1426.121	66	1
1427.113	66	1
1428.11	67	1
1429.113	66	1
1430.101	65	1
1431.098	64	1
1432.094	63	1
1433.091	63	1
1434.087	64	1
1435.082	63	1
1436.078	63	1
1437.076	62	1
1438.071	62	1
1439.067	61	1
1440.064	61	1
1441.059	61	1
1442.054	61	1
1443.054	61	1
1444.047	60	1
1445.043	60	1
1446.044	61	1
1447.035	61	1
1448.03	61	1
1449.029	62	1
1450.023	63	1
1451.024	63	1
1452.017	63	1
1453.012	64	1
1454.009	65	1
1455.004	64	1
1455.999	65	1
1457.0	65	1
1457.992	65	1
1458.99	65	1
1459.987	64	1
1460.981	96	1
1461.977	96	1
1462.977	95	1
1463.969	95	1
1464.964	94	1
1465.966	94	1
1466.957	94	1
1467.954	93	1
1468.95	94	1
1469.945	93	1
1470.942	91	1
1471.938	91	1
1472.934	91	1
1473.943	92	1
1474.926	92	1
1475.922	92	1
1476.92	92	1
1477.915	92	1
1478.911	98	1
1479.911	98	1
1480.905	98	1
1481.899	98	1
1482.898	95	1
1483.891	95	1
1484.887	95	1
1485.889	94	1
1486.88	95	1
1487.875	94	1
1488.871	92	1
1489.868	92	1
1490.863	91	1
1491.861	91	1
1492.855	91	1
1493.856	92	1
1494.849	92	1
1495.845	91	1
1496.841	91	1
1497.837	91	1
1498.834	91	1
1499.841	89	1
1500.827	89	1
1501.821	89	1
1502.82	90	1
1503.813	90	1
1504.809	90	1
1505.806	88	1
1506.801	89	1
1507.797	89	1
1508.794	75	1
1509.789	74	1
1510.787	74	1
1511.782	75	1
1512.778	74	1
1513.779	74	1
1514.77	73	1
1515.767	73	1
1516.769	73	1
1517.758	72	1
1518.754	72	1
1519.753	72	1
1520.747	71	1
1521.744	72	1
1522.744	72	1
1523.739	72	1
1524.73	72	1
1525.728	72	1
1526.723	72	1
1527.72	71	1
1528.717	72	1
1529.712	72	1
1530.709	72	1
1531.703	72	1
1532.699	72	1
1533.7	72	1
1534.692	72	1
1535.688	72	1
1536.687	72	1
1537.681	72	1
1538.676	72	1
1539.674	73	1
1540.669	73	1
1541.665	74	1
1542.665	76	1
1543.657	75	1
1544.653	75	1
1545.653	74	1
1546.651	74	1
1547.642	74	1
1548.638	74	1
1549.633	73	1
1550.631	73	1
1551.627	73	1
1552.622	72	1
1553.624	72	1
1554.613	71	1
1555.61	71	1
1556.609	71	1
1557.602	71	1
1558.599	71	1
1559.597	71	1
1560.592	71	1
1561.587	71	1
1562.585	72	1
1563.578	71	1
1564.574	71	1
1565.57	71	1
1566.567	71	1
1567.57	72	1
1568.559	72	1
1569.556	72	1
1570.555	78	1
1571.548	77	1
1572.543	77	1
1573.539	77	1
1574.536	78	1
1575.532	78	1
1576.532	78	1
1577.524	77	1
1578.521	77	1
1579.519	77	1
1580.513	77	1
1581.508	77	1
1582.511	78	1
1583.501	78	1
1584.497	78	1
1585.493	78	1
1586.495	77	1
1587.488	78	1
1588.481	78	1
1589.476	77	1
1590.477	78	1
1591.47	78	1
1592.467	78	1
1593.472	79	1
1594.458	80	1
1595.453	80	1
1596.451	80	1
1597.446	80	1
1598.447	80	1
1599.438	80	1
1600.439	80	1
1601.433	80	1
1602.427	79	1
1603.423	78	1
1604.422	78	1
1605.414	78	1
1606.421	78	1
1607.407	78	1
1608.403	78	1
1609.4	78	1
1610.397	78	1
1611.392	77	1
1612.401	76	1
1613.383	76	1
1614.379	76	1
1615.38	75	1
1616.371	75	1
1617.368	75	1
1618.365	75	1
1619.36	75	1
1620.358	75	1
1621.352	75	1
1622.349	76	1
1623.348	76	1
1624.341	76	1
1625.337	76	1
1626.336	78	1
1627.329	77	1
1628.327	76	1
1629.326	76	1
1630.317	76	1
1631.313	75	1
1632.31	74	1
1633.307	74	1
1634.302	74	1
1635.299	73	1
1636.295	73	1
1637.292	74	1
1638.287	74	1
1639.282	73	1
1640.289	72	1
1641.274	72	1
1642.271	72	1
1643.274	72	1
1644.263	71	1
1645.269	71	1
1646.256	71	1
1647.25	71	1
1648.248	71	1
1649.243	70	1
1650.239	70	1
1651.236	69	1
1652.232	67	1
1653.227	68	1
1654.226	69	1
1655.227	69	1
1656.216	69	1
1657.215	69	1
1658.208	70	1
1659.205	70	1
1660.204	71	1
1661.196	70	1
1662.193	72	1
1663.188	73	1
1664.185	75	1
1665.182	75	1
1666.177	75	1
1667.173	75	1
1668.171	76	1
1669.164	76	1
1670.161	75	1
1671.162	76	1
1672.153	76	1
1673.151	76	1
1674.147	77	1
1675.142	77	1
1676.142	76	1
1677.135	77	1
1678.129	76	1
1679.131	76	1
1680.121	76	1
1681.119	75	1
1682.118	75	1
1683.109	74	1
1684.11	74	1
