# time: 14.12.2015 12:57:50.678
# name: ST
# channel: ST
0.276	28.57
2.662	28.96
33.59	29.36
64.503	29.54
95.431	29.7
126.36	29.9
157.289	30.24
188.205	30.41
219.13	30.5
250.065	30.71
280.989	30.85
311.9	30.86
342.829	30.92
373.759	30.99
404.687	31.13
435.599	31.22
466.527	31.34
497.461	31.44
528.385	31.53
559.297	31.63
590.227	31.73
621.155	31.84
652.085	31.96
682.995	32.02
713.929	32.09
744.852	32.13
775.782	32.09
806.696	32.01
837.623	32.0
868.552	31.99
899.481	31.95
930.393	31.84
961.322	31.86
992.252	31.84
1023.179	31.85
1054.091	31.86
1085.021	31.87
1115.95	31.91
